{
    "words": [
        {
            "word": "Test1",
            "translate": "Test1",
            "category": "Test"
        },
        {
            "word": "Test2",
            "translate": "Test2",
            "category": "Test"
        },
        {
            "word": "Test3",
            "translate": "Test3",
            "category": "Test"
        },
        {
            "word": "Test4",
            "translate": "Test4",
            "category": "Test"
        },
        {
            "word": "Test5",
            "translate": "Test5",
            "category": "Test"
        },
        {
            "word": "Test6",
            "translate": "Test6",
            "category": "Test"
        },
        {
            "word": "Test7",
            "translate": "Test7",
            "category": "Test"
        },
        {
            "word": "Test11",
            "translate": "Test11",
            "category": "Test1"
        },
        {
            "word": "Test12",
            "translate": "Test12",
            "category": "Test1"
        },
        {
            "word": "Test13",
            "translate": "Test13",
            "category": "Test1"
        },
        {
            "word": "Test14",
            "translate": "Test14",
            "category": "Test1"
        },
        {
            "word": "Test15",
            "translate": "Test15",
            "category": "Test1"
        },
        {
            "word": "Test16",
            "translate": "Test16",
            "category": "Test1"
        },
        {
            "word": "Test17",
            "translate": "Test17",
            "category": "Test1"
        },
    ],
    "categories": ["Test", "Test1"]
}